^D:\REPOSITORIES\C++\HEOBP\OPDR7-DECORATOR\OPDR7-DECORATOR\ELVE.CPP|D:\REPOSITORIES\C++\HEOBP\OPDR7-DECORATOR\OPDR7-DECORATOR\FARMERDECORATOR.CPP|D:\REPOSITORIES\C++\HEOBP\OPDR7-DECORATOR\OPDR7-DECORATOR\NPCDECORATOR.CPP|D:\REPOSITORIES\C++\HEOBP\OPDR7-DECORATOR\OPDR7-DECORATOR\SOURCE.CPP
D:\REPOSITORIES\C++\HEOBP\OPDR7-DECORATOR\OPDR7-DECORATOR\DEBUG\VC140.PDB
D:\REPOSITORIES\C++\HEOBP\OPDR7-DECORATOR\OPDR7-DECORATOR\DEBUG\VC140.IDB
D:\REPOSITORIES\C++\HEOBP\OPDR7-DECORATOR\OPDR7-DECORATOR\DEBUG\ELVE.OBJ
D:\REPOSITORIES\C++\HEOBP\OPDR7-DECORATOR\OPDR7-DECORATOR\DEBUG\NPCDECORATOR.OBJ
^D:\REPOSITORIES\C++\HEOBP\OPDR7-DECORATOR\OPDR7-DECORATOR\ELVE.CPP
D:\REPOSITORIES\C++\HEOBP\OPDR7-DECORATOR\OPDR7-DECORATOR\DEBUG\VC140.PDB
^D:\REPOSITORIES\C++\HEOBP\OPDR7-DECORATOR\OPDR7-DECORATOR\FARMERDECORATOR.CPP
D:\REPOSITORIES\C++\HEOBP\OPDR7-DECORATOR\OPDR7-DECORATOR\DEBUG\VC140.PDB
^D:\REPOSITORIES\C++\HEOBP\OPDR7-DECORATOR\OPDR7-DECORATOR\NPCDECORATOR.CPP
D:\REPOSITORIES\C++\HEOBP\OPDR7-DECORATOR\OPDR7-DECORATOR\DEBUG\VC140.PDB
^D:\REPOSITORIES\C++\HEOBP\OPDR7-DECORATOR\OPDR7-DECORATOR\SOURCE.CPP
D:\REPOSITORIES\C++\HEOBP\OPDR7-DECORATOR\OPDR7-DECORATOR\DEBUG\VC140.PDB
D:\REPOSITORIES\C++\HEOBP\OPDR7-DECORATOR\OPDR7-DECORATOR\DEBUG\VC140.IDB
D:\REPOSITORIES\C++\HEOBP\OPDR7-DECORATOR\OPDR7-DECORATOR\DEBUG\SOURCE.OBJ
^D:\REPOSITORIES\C++\HEOBP\OPDR7-DECORATOR\OPDR7-DECORATOR\FARMERDECORATOR.CPP|D:\REPOSITORIES\C++\HEOBP\OPDR7-DECORATOR\OPDR7-DECORATOR\SOURCE.CPP
D:\REPOSITORIES\C++\HEOBP\OPDR7-DECORATOR\OPDR7-DECORATOR\DEBUG\VC140.PDB
D:\REPOSITORIES\C++\HEOBP\OPDR7-DECORATOR\OPDR7-DECORATOR\DEBUG\VC140.IDB
D:\REPOSITORIES\C++\HEOBP\OPDR7-DECORATOR\OPDR7-DECORATOR\DEBUG\FARMERDECORATOR.OBJ
^D:\REPOSITORIES\C++\HEOBP\OPDR7-DECORATOR\OPDR7-DECORATOR\ELVE.CPP|D:\REPOSITORIES\C++\HEOBP\OPDR7-DECORATOR\OPDR7-DECORATOR\SOURCE.CPP
D:\REPOSITORIES\C++\HEOBP\OPDR7-DECORATOR\OPDR7-DECORATOR\DEBUG\VC140.PDB
D:\REPOSITORIES\C++\HEOBP\OPDR7-DECORATOR\OPDR7-DECORATOR\DEBUG\VC140.IDB
D:\REPOSITORIES\C++\HEOBP\OPDR7-DECORATOR\OPDR7-DECORATOR\DEBUG\ELVE.OBJ
^D:\REPOSITORIES\C++\HEOBP\OPDR7-DECORATOR\OPDR7-DECORATOR\SOLDIERDECORATOR.CPP|D:\REPOSITORIES\C++\HEOBP\OPDR7-DECORATOR\OPDR7-DECORATOR\SOURCE.CPP
D:\REPOSITORIES\C++\HEOBP\OPDR7-DECORATOR\OPDR7-DECORATOR\DEBUG\VC140.PDB
D:\REPOSITORIES\C++\HEOBP\OPDR7-DECORATOR\OPDR7-DECORATOR\DEBUG\VC140.IDB
D:\REPOSITORIES\C++\HEOBP\OPDR7-DECORATOR\OPDR7-DECORATOR\DEBUG\SOLDIERDECORATOR.OBJ
D:\REPOSITORIES\C++\HEOBP\OPDR7-DECORATOR\OPDR7-DECORATOR\DEBUG\SOURCE.OBJ
^D:\REPOSITORIES\C++\HEOBP\OPDR7-DECORATOR\OPDR7-DECORATOR\SOLDIERDECORATOR.CPP
D:\REPOSITORIES\C++\HEOBP\OPDR7-DECORATOR\OPDR7-DECORATOR\DEBUG\VC140.PDB
^D:\REPOSITORIES\C++\HEOBP\OPDR7-DECORATOR\OPDR7-DECORATOR\SHAMANDECORATOR.CPP|D:\REPOSITORIES\C++\HEOBP\OPDR7-DECORATOR\OPDR7-DECORATOR\SOURCE.CPP
D:\REPOSITORIES\C++\HEOBP\OPDR7-DECORATOR\OPDR7-DECORATOR\DEBUG\VC140.PDB
D:\REPOSITORIES\C++\HEOBP\OPDR7-DECORATOR\OPDR7-DECORATOR\DEBUG\VC140.IDB
D:\REPOSITORIES\C++\HEOBP\OPDR7-DECORATOR\OPDR7-DECORATOR\DEBUG\SHAMANDECORATOR.OBJ
D:\REPOSITORIES\C++\HEOBP\OPDR7-DECORATOR\OPDR7-DECORATOR\DEBUG\SOURCE.OBJ
^D:\REPOSITORIES\C++\HEOBP\OPDR7-DECORATOR\OPDR7-DECORATOR\SHAMANDECORATOR.CPP
D:\REPOSITORIES\C++\HEOBP\OPDR7-DECORATOR\OPDR7-DECORATOR\DEBUG\VC140.PDB
^D:\REPOSITORIES\C++\HEOBP\OPDR7-DECORATOR\OPDR7-DECORATOR\ORC.CPP|D:\REPOSITORIES\C++\HEOBP\OPDR7-DECORATOR\OPDR7-DECORATOR\SOURCE.CPP
D:\REPOSITORIES\C++\HEOBP\OPDR7-DECORATOR\OPDR7-DECORATOR\DEBUG\VC140.PDB
D:\REPOSITORIES\C++\HEOBP\OPDR7-DECORATOR\OPDR7-DECORATOR\DEBUG\VC140.IDB
D:\REPOSITORIES\C++\HEOBP\OPDR7-DECORATOR\OPDR7-DECORATOR\DEBUG\ORC.OBJ
^D:\REPOSITORIES\C++\HEOBP\OPDR7-DECORATOR\OPDR7-DECORATOR\ORC.CPP
D:\REPOSITORIES\C++\HEOBP\OPDR7-DECORATOR\OPDR7-DECORATOR\DEBUG\VC140.PDB
^D:\REPOSITORIES\C++\HEOBP\OPDR10-DECORATOR-FACTORY\OPDR7-DECORATOR\ELVE.CPP|D:\REPOSITORIES\C++\HEOBP\OPDR10-DECORATOR-FACTORY\OPDR7-DECORATOR\FARMERDECORATOR.CPP|D:\REPOSITORIES\C++\HEOBP\OPDR10-DECORATOR-FACTORY\OPDR7-DECORATOR\NPCDECORATOR.CPP|D:\REPOSITORIES\C++\HEOBP\OPDR10-DECORATOR-FACTORY\OPDR7-DECORATOR\ORC.CPP|D:\REPOSITORIES\C++\HEOBP\OPDR10-DECORATOR-FACTORY\OPDR7-DECORATOR\SHAMANDECORATOR.CPP|D:\REPOSITORIES\C++\HEOBP\OPDR10-DECORATOR-FACTORY\OPDR7-DECORATOR\SOLDIERDECORATOR.CPP|D:\REPOSITORIES\C++\HEOBP\OPDR10-DECORATOR-FACTORY\OPDR7-DECORATOR\SOURCE.CPP
D:\REPOSITORIES\C++\HEOBP\OPDR10-DECORATOR-FACTORY\OPDR7-DECORATOR\DEBUG\VC140.PDB
D:\REPOSITORIES\C++\HEOBP\OPDR10-DECORATOR-FACTORY\OPDR7-DECORATOR\DEBUG\VC140.IDB
D:\REPOSITORIES\C++\HEOBP\OPDR10-DECORATOR-FACTORY\OPDR7-DECORATOR\DEBUG\ELVE.OBJ
D:\REPOSITORIES\C++\HEOBP\OPDR10-DECORATOR-FACTORY\OPDR7-DECORATOR\DEBUG\ORC.OBJ
D:\REPOSITORIES\C++\HEOBP\OPDR10-DECORATOR-FACTORY\OPDR7-DECORATOR\DEBUG\SOURCE.OBJ
^D:\REPOSITORIES\C++\HEOBP\OPDR10-DECORATOR-FACTORY\OPDR7-DECORATOR\ELVE.CPP
D:\REPOSITORIES\C++\HEOBP\OPDR10-DECORATOR-FACTORY\OPDR7-DECORATOR\DEBUG\VC140.PDB
^D:\REPOSITORIES\C++\HEOBP\OPDR10-DECORATOR-FACTORY\OPDR7-DECORATOR\FARMERDECORATOR.CPP
D:\REPOSITORIES\C++\HEOBP\OPDR10-DECORATOR-FACTORY\OPDR7-DECORATOR\DEBUG\VC140.PDB
^D:\REPOSITORIES\C++\HEOBP\OPDR10-DECORATOR-FACTORY\OPDR7-DECORATOR\NPCDECORATOR.CPP
D:\REPOSITORIES\C++\HEOBP\OPDR10-DECORATOR-FACTORY\OPDR7-DECORATOR\DEBUG\VC140.PDB
^D:\REPOSITORIES\C++\HEOBP\OPDR10-DECORATOR-FACTORY\OPDR7-DECORATOR\ORC.CPP
D:\REPOSITORIES\C++\HEOBP\OPDR10-DECORATOR-FACTORY\OPDR7-DECORATOR\DEBUG\VC140.PDB
^D:\REPOSITORIES\C++\HEOBP\OPDR10-DECORATOR-FACTORY\OPDR7-DECORATOR\SHAMANDECORATOR.CPP
D:\REPOSITORIES\C++\HEOBP\OPDR10-DECORATOR-FACTORY\OPDR7-DECORATOR\DEBUG\VC140.PDB
^D:\REPOSITORIES\C++\HEOBP\OPDR10-DECORATOR-FACTORY\OPDR7-DECORATOR\SOLDIERDECORATOR.CPP
D:\REPOSITORIES\C++\HEOBP\OPDR10-DECORATOR-FACTORY\OPDR7-DECORATOR\DEBUG\VC140.PDB
^D:\REPOSITORIES\C++\HEOBP\OPDR10-DECORATOR-FACTORY\OPDR7-DECORATOR\SOURCE.CPP
D:\REPOSITORIES\C++\HEOBP\OPDR10-DECORATOR-FACTORY\OPDR7-DECORATOR\DEBUG\VC140.PDB
D:\REPOSITORIES\C++\HEOBP\OPDR10-DECORATOR-FACTORY\OPDR7-DECORATOR\DEBUG\VC140.IDB
D:\REPOSITORIES\C++\HEOBP\OPDR10-DECORATOR-FACTORY\OPDR7-DECORATOR\DEBUG\SOURCE.OBJ
^D:\REPOSITORIES\C++\HEOBP\OPDR10-DECORATOR-FACTORY\OPDR7-DECORATOR\FARMERDECORATOR.CPP|D:\REPOSITORIES\C++\HEOBP\OPDR10-DECORATOR-FACTORY\OPDR7-DECORATOR\NPCDECORATOR.CPP|D:\REPOSITORIES\C++\HEOBP\OPDR10-DECORATOR-FACTORY\OPDR7-DECORATOR\SHAMANDECORATOR.CPP|D:\REPOSITORIES\C++\HEOBP\OPDR10-DECORATOR-FACTORY\OPDR7-DECORATOR\SOLDIERDECORATOR.CPP
D:\REPOSITORIES\C++\HEOBP\OPDR10-DECORATOR-FACTORY\OPDR7-DECORATOR\DEBUG\VC140.PDB
D:\REPOSITORIES\C++\HEOBP\OPDR10-DECORATOR-FACTORY\OPDR7-DECORATOR\DEBUG\VC140.IDB
D:\REPOSITORIES\C++\HEOBP\OPDR10-DECORATOR-FACTORY\OPDR7-DECORATOR\DEBUG\FARMERDECORATOR.OBJ
D:\REPOSITORIES\C++\HEOBP\OPDR10-DECORATOR-FACTORY\OPDR7-DECORATOR\DEBUG\NPCDECORATOR.OBJ
D:\REPOSITORIES\C++\HEOBP\OPDR10-DECORATOR-FACTORY\OPDR7-DECORATOR\DEBUG\SHAMANDECORATOR.OBJ
D:\REPOSITORIES\C++\HEOBP\OPDR10-DECORATOR-FACTORY\OPDR7-DECORATOR\DEBUG\SOLDIERDECORATOR.OBJ
^D:\REPOSITORIES\C++\HEOBP\OPDR10-DECORATOR-FACTORY\OPDR7-DECORATOR\FARMERDECORATOR.CPP|D:\REPOSITORIES\C++\HEOBP\OPDR10-DECORATOR-FACTORY\OPDR7-DECORATOR\NPCDECORATOR.CPP|D:\REPOSITORIES\C++\HEOBP\OPDR10-DECORATOR-FACTORY\OPDR7-DECORATOR\SHAMANDECORATOR.CPP|D:\REPOSITORIES\C++\HEOBP\OPDR10-DECORATOR-FACTORY\OPDR7-DECORATOR\SOLDIERDECORATOR.CPP|D:\REPOSITORIES\C++\HEOBP\OPDR10-DECORATOR-FACTORY\OPDR7-DECORATOR\SOURCE.CPP
D:\REPOSITORIES\C++\HEOBP\OPDR10-DECORATOR-FACTORY\OPDR7-DECORATOR\DEBUG\VC140.PDB
D:\REPOSITORIES\C++\HEOBP\OPDR10-DECORATOR-FACTORY\OPDR7-DECORATOR\DEBUG\VC140.IDB
D:\REPOSITORIES\C++\HEOBP\OPDR10-DECORATOR-FACTORY\OPDR7-DECORATOR\DEBUG\NPCDECORATOR.OBJ
D:\REPOSITORIES\C++\HEOBP\OPDR10-DECORATOR-FACTORY\OPDR7-DECORATOR\DEBUG\SOURCE.OBJ
D:\REPOSITORIES\C++\HEOBP\OPDR10-DECORATOR-FACTORY\OPDR7-DECORATOR\DEBUG\FARMERDECORATOR.OBJ
D:\REPOSITORIES\C++\HEOBP\OPDR10-DECORATOR-FACTORY\OPDR7-DECORATOR\DEBUG\SHAMANDECORATOR.OBJ
D:\REPOSITORIES\C++\HEOBP\OPDR10-DECORATOR-FACTORY\OPDR7-DECORATOR\DEBUG\SOLDIERDECORATOR.OBJ
