^D:\REPOSITORIES\C++\HEOBP\OPDR7-DECORATOR\OPDR7-DECORATOR\DEBUG\ELVE.OBJ|D:\REPOSITORIES\C++\HEOBP\OPDR7-DECORATOR\OPDR7-DECORATOR\DEBUG\FARMERDECORATOR.OBJ|D:\REPOSITORIES\C++\HEOBP\OPDR7-DECORATOR\OPDR7-DECORATOR\DEBUG\NPCDECORATOR.OBJ|D:\REPOSITORIES\C++\HEOBP\OPDR7-DECORATOR\OPDR7-DECORATOR\DEBUG\ORC.OBJ|D:\REPOSITORIES\C++\HEOBP\OPDR7-DECORATOR\OPDR7-DECORATOR\DEBUG\SHAMANDECORATOR.OBJ|D:\REPOSITORIES\C++\HEOBP\OPDR7-DECORATOR\OPDR7-DECORATOR\DEBUG\SOLDIERDECORATOR.OBJ|D:\REPOSITORIES\C++\HEOBP\OPDR7-DECORATOR\OPDR7-DECORATOR\DEBUG\SOURCE.OBJ
/OUT:"D:\REPOSITORIES\C++\HEOBP\OPDR7-DECORATOR\DEBUG\OPDR7-DECORATOR.EXE" /INCREMENTAL /NOLOGO KERNEL32.LIB USER32.LIB GDI32.LIB WINSPOOL.LIB COMDLG32.LIB ADVAPI32.LIB SHELL32.LIB OLE32.LIB OLEAUT32.LIB UUID.LIB ODBC32.LIB ODBCCP32.LIB /MANIFEST /MANIFESTUAC:"level='asInvoker' uiAccess='false'" /manifest:embed /DEBUG /PDB:"D:\REPOSITORIES\C++\HEOBP\OPDR7-DECORATOR\DEBUG\OPDR7-DECORATOR.PDB" /SUBSYSTEM:CONSOLE /TLBID:1 /DYNAMICBASE /NXCOMPAT /IMPLIB:"D:\REPOSITORIES\C++\HEOBP\OPDR7-DECORATOR\DEBUG\OPDR7-DECORATOR.LIB" /MACHINE:X86 DEBUG\ELVE.OBJDEBUG\FARMERDECORATOR.OBJDEBUG\NPCDECORATOR.OBJDEBUG\ORC.OBJDEBUG\SHAMANDECORATOR.OBJDEBUG\SOLDIERDECORATOR.OBJDEBUG\SOURCE.OBJ
^D:\REPOSITORIES\C++\HEOBP\OPDR10-DECORATOR-FACTORY\OPDR7-DECORATOR\DEBUG\ELVE.OBJ|D:\REPOSITORIES\C++\HEOBP\OPDR10-DECORATOR-FACTORY\OPDR7-DECORATOR\DEBUG\FARMERDECORATOR.OBJ|D:\REPOSITORIES\C++\HEOBP\OPDR10-DECORATOR-FACTORY\OPDR7-DECORATOR\DEBUG\NPCDECORATOR.OBJ|D:\REPOSITORIES\C++\HEOBP\OPDR10-DECORATOR-FACTORY\OPDR7-DECORATOR\DEBUG\ORC.OBJ|D:\REPOSITORIES\C++\HEOBP\OPDR10-DECORATOR-FACTORY\OPDR7-DECORATOR\DEBUG\SHAMANDECORATOR.OBJ|D:\REPOSITORIES\C++\HEOBP\OPDR10-DECORATOR-FACTORY\OPDR7-DECORATOR\DEBUG\SOLDIERDECORATOR.OBJ|D:\REPOSITORIES\C++\HEOBP\OPDR10-DECORATOR-FACTORY\OPDR7-DECORATOR\DEBUG\SOURCE.OBJ
/OUT:"D:\REPOSITORIES\C++\HEOBP\OPDR10-DECORATOR-FACTORY\DEBUG\OPDR7-DECORATOR.EXE" /INCREMENTAL /NOLOGO KERNEL32.LIB USER32.LIB GDI32.LIB WINSPOOL.LIB COMDLG32.LIB ADVAPI32.LIB SHELL32.LIB OLE32.LIB OLEAUT32.LIB UUID.LIB ODBC32.LIB ODBCCP32.LIB /MANIFEST /MANIFESTUAC:"level='asInvoker' uiAccess='false'" /manifest:embed /DEBUG /PDB:"D:\REPOSITORIES\C++\HEOBP\OPDR10-DECORATOR-FACTORY\DEBUG\OPDR7-DECORATOR.PDB" /SUBSYSTEM:CONSOLE /TLBID:1 /DYNAMICBASE /NXCOMPAT /IMPLIB:"D:\REPOSITORIES\C++\HEOBP\OPDR10-DECORATOR-FACTORY\DEBUG\OPDR7-DECORATOR.LIB" /MACHINE:X86 DEBUG\ELVE.OBJDEBUG\FARMERDECORATOR.OBJDEBUG\NPCDECORATOR.OBJDEBUG\ORC.OBJDEBUG\SHAMANDECORATOR.OBJDEBUG\SOLDIERDECORATOR.OBJDEBUG\SOURCE.OBJ
